^C:\USERS\USER\DOCUMENTS\VISUAL STUDIO 2015\PROJECTS\FULLPROJECTS\VISUAL STUDIO\LAB2-0\LAB2-0\RELEASE\SOURCE.OBJ
C:\USERS\USER\DOCUMENTS\VISUAL STUDIO 2015\PROJECTS\FULLPROJECTS\VISUAL STUDIO\LAB2-0\RELEASE\LAB2-0.EXE
C:\USERS\USER\DOCUMENTS\VISUAL STUDIO 2015\PROJECTS\FULLPROJECTS\VISUAL STUDIO\LAB2-0\RELEASE\LAB2-0.IPDB
C:\USERS\USER\DOCUMENTS\VISUAL STUDIO 2015\PROJECTS\FULLPROJECTS\VISUAL STUDIO\LAB2-0\RELEASE\LAB2-0.IOBJ
C:\USERS\USER\DOCUMENTS\VISUAL STUDIO 2015\PROJECTS\FULLPROJECTS\VISUAL STUDIO\LAB2-0\RELEASE\LAB2-0.PDB
