^C:\USERS\USER\DOCUMENTS\VISUAL STUDIO 2015\PROJECTS\OTHERS\VISUAL STUDIO\HOMEWORK(05.12)\HOMEWORK(05.12)\RELEASE\SOURCE.OBJ
C:\WINDOWS\GLOBALIZATION\SORTING\SORTDEFAULT.NLS
C:\PROGRAM FILES (X86)\WINDOWS KITS\8.1\LIB\WINV6.3\UM\X86\KERNEL32.LIB
C:\PROGRAM FILES (X86)\WINDOWS KITS\8.1\LIB\WINV6.3\UM\X86\USER32.LIB
C:\PROGRAM FILES (X86)\WINDOWS KITS\8.1\LIB\WINV6.3\UM\X86\GDI32.LIB
C:\PROGRAM FILES (X86)\WINDOWS KITS\8.1\LIB\WINV6.3\UM\X86\WINSPOOL.LIB
C:\PROGRAM FILES (X86)\WINDOWS KITS\8.1\LIB\WINV6.3\UM\X86\COMDLG32.LIB
C:\PROGRAM FILES (X86)\WINDOWS KITS\8.1\LIB\WINV6.3\UM\X86\ADVAPI32.LIB
C:\PROGRAM FILES (X86)\WINDOWS KITS\8.1\LIB\WINV6.3\UM\X86\SHELL32.LIB
C:\PROGRAM FILES (X86)\WINDOWS KITS\8.1\LIB\WINV6.3\UM\X86\OLE32.LIB
C:\PROGRAM FILES (X86)\WINDOWS KITS\8.1\LIB\WINV6.3\UM\X86\OLEAUT32.LIB
C:\PROGRAM FILES (X86)\WINDOWS KITS\8.1\LIB\WINV6.3\UM\X86\UUID.LIB
C:\PROGRAM FILES (X86)\WINDOWS KITS\8.1\LIB\WINV6.3\UM\X86\ODBC32.LIB
C:\PROGRAM FILES (X86)\WINDOWS KITS\8.1\LIB\WINV6.3\UM\X86\ODBCCP32.LIB
C:\USERS\USER\DOCUMENTS\VISUAL STUDIO 2015\PROJECTS\OTHERS\VISUAL STUDIO\HOMEWORK(05.12)\HOMEWORK(05.12)\RELEASE\SOURCE.OBJ
F:\SOFT\VS\VC\BIN\C2.DLL
F:\SOFT\VS\VC\LIB\MSVCRT.LIB
F:\SOFT\VS\VC\LIB\OLDNAMES.LIB
F:\SOFT\VS\VC\LIB\VCRUNTIME.LIB
C:\PROGRAM FILES (X86)\WINDOWS KITS\10\LIB\10.0.10240.0\UCRT\X86\UCRT.LIB
F:\SOFT\VS\VC\BIN\1049\LINKUI.DLL
C:\USERS\USER\DOCUMENTS\VISUAL STUDIO 2015\PROJECTS\OTHERS\VISUAL STUDIO\HOMEWORK(05.12)\RELEASE\HOMEWORK(05.12).IPDB
C:\USERS\USER\DOCUMENTS\VISUAL STUDIO 2015\PROJECTS\OTHERS\VISUAL STUDIO\HOMEWORK(05.12)\RELEASE\HOMEWORK(05.12).IOBJ
C:\PROGRAM FILES (X86)\WINDOWS KITS\8.1\BIN\X86\RC.EXE
F:\SOFT\VS\VC\BIN\CVTRES.EXE
C:\WINDOWS\SYSTEM32\TZRES.DLL
