^C:\USERS\USER\DOCUMENTS\VISUAL STUDIO 2015\PROJECTS\FULLPROJECTS\VISUAL STUDIO\HOMEWORK(24.10)\HOMEWORK(24.10)\SOURCE.CPP
C:\USERS\USER\DOCUMENTS\VISUAL STUDIO 2015\PROJECTS\FULLPROJECTS\VISUAL STUDIO\HOMEWORK(24.10)\HOMEWORK(24.10)\DEBUG\VC140.PDB
C:\USERS\USER\DOCUMENTS\VISUAL STUDIO 2015\PROJECTS\FULLPROJECTS\VISUAL STUDIO\HOMEWORK(24.10)\HOMEWORK(24.10)\DEBUG\VC140.IDB
C:\USERS\USER\DOCUMENTS\VISUAL STUDIO 2015\PROJECTS\FULLPROJECTS\VISUAL STUDIO\HOMEWORK(24.10)\HOMEWORK(24.10)\DEBUG\SOURCE.OBJ
^C:\USERS\USER\DOCUMENTS\VISUAL STUDIO 2015\PROJECTS\FULLPROJECTS\VISUAL STUDIO\HOMEWORK(24.10)\HOMEWORK(24.10)\SOURCE.C
C:\USERS\USER\DOCUMENTS\VISUAL STUDIO 2015\PROJECTS\FULLPROJECTS\VISUAL STUDIO\HOMEWORK(24.10)\HOMEWORK(24.10)\DEBUG\VC140.PDB
C:\USERS\USER\DOCUMENTS\VISUAL STUDIO 2015\PROJECTS\FULLPROJECTS\VISUAL STUDIO\HOMEWORK(24.10)\HOMEWORK(24.10)\DEBUG\VC140.IDB
C:\USERS\USER\DOCUMENTS\VISUAL STUDIO 2015\PROJECTS\FULLPROJECTS\VISUAL STUDIO\HOMEWORK(24.10)\HOMEWORK(24.10)\DEBUG\SOURCE.OBJ
