^C:\USERS\USER\DOCUMENTS\VISUAL STUDIO 2015\PROJECTS\FULLPROJECTS\VISUAL STUDIO\LAB4-0\LAB4-0\SOURCE.C
/c /Zi /nologo /W3 /WX- /sdl /O2 /Oi /Oy- /GL /D _MBCS /Gm- /EHsc /MD /GS /Gy /fp:precise /Zc:wchar_t /Zc:forScope /Zc:inline /Fo"RELEASE\\" /Fd"RELEASE\VC140.PDB" /Gd /TC /analyze- C:\USERS\USER\DOCUMENTS\VISUAL STUDIO 2015\PROJECTS\FULLPROJECTS\VISUAL STUDIO\LAB4-0\LAB4-0\SOURCE.C
^C:\USERS\VLAD\DOCUMENTS\NSU\FORGIT\FORNSU\PROGRAMMING\FULLPROJECTS\LAB4-0\LAB4-0\SOURCE.C
/c /Zi /nologo /W3 /WX- /sdl /O2 /Oi /Oy- /GL /D _MBCS /Gm- /EHsc /MD /GS /Gy /fp:precise /Zc:wchar_t /Zc:forScope /Zc:inline /Fo"RELEASE\\" /Fd"RELEASE\VC140.PDB" /Gd /TC /analyze- C:\USERS\VLAD\DOCUMENTS\NSU\FORGIT\FORNSU\PROGRAMMING\FULLPROJECTS\LAB4-0\LAB4-0\SOURCE.C
^C:\USERS\USER\DOCUMENTS\VISUAL STUDIO 2015\PROJECTS\PROGRAMMING\FULLPROJECTS\LAB4-0\LAB4-0\SOURCE.C
/c /Zi /nologo /W3 /WX- /sdl /O2 /Oi /Oy- /GL /D _MBCS /Gm- /EHsc /MD /GS /Gy /fp:precise /Zc:wchar_t /Zc:forScope /Zc:inline /Fo"RELEASE\\" /Fd"RELEASE\VC140.PDB" /Gd /TC /analyze- C:\USERS\USER\DOCUMENTS\VISUAL STUDIO 2015\PROJECTS\PROGRAMMING\FULLPROJECTS\LAB4-0\LAB4-0\SOURCE.C
