^C:\USERS\USER\DOCUMENTS\VISUAL STUDIO 2015\PROJECTS\FULLPROJECTS\VISUAL STUDIO\LAB4-0\LAB4-0\SOURCE.C
C:\USERS\USER\DOCUMENTS\VISUAL STUDIO 2015\PROJECTS\FULLPROJECTS\VISUAL STUDIO\LAB4-0\LAB4-0\RELEASE\VC140.PDB
C:\USERS\USER\DOCUMENTS\VISUAL STUDIO 2015\PROJECTS\FULLPROJECTS\VISUAL STUDIO\LAB4-0\LAB4-0\RELEASE\SOURCE.OBJ
^C:\USERS\VLAD\DOCUMENTS\NSU\FORGIT\FORNSU\PROGRAMMING\FULLPROJECTS\LAB4-0\LAB4-0\SOURCE.C
C:\USERS\VLAD\DOCUMENTS\NSU\FORGIT\FORNSU\PROGRAMMING\FULLPROJECTS\LAB4-0\LAB4-0\RELEASE\VC140.PDB
C:\USERS\VLAD\DOCUMENTS\NSU\FORGIT\FORNSU\PROGRAMMING\FULLPROJECTS\LAB4-0\LAB4-0\RELEASE\SOURCE.OBJ
^C:\USERS\USER\DOCUMENTS\VISUAL STUDIO 2015\PROJECTS\PROGRAMMING\FULLPROJECTS\LAB4-0\LAB4-0\SOURCE.C
C:\USERS\USER\DOCUMENTS\VISUAL STUDIO 2015\PROJECTS\PROGRAMMING\FULLPROJECTS\LAB4-0\LAB4-0\RELEASE\VC140.PDB
C:\USERS\USER\DOCUMENTS\VISUAL STUDIO 2015\PROJECTS\PROGRAMMING\FULLPROJECTS\LAB4-0\LAB4-0\RELEASE\SOURCE.OBJ
