^C:\USERS\USER\DOCUMENTS\VISUAL STUDIO 2015\PROJECTS\FULLPROJECTS\VISUAL STUDIO\LAB4-0\LAB4-0\RELEASE\SOURCE.OBJ
C:\USERS\USER\DOCUMENTS\VISUAL STUDIO 2015\PROJECTS\FULLPROJECTS\VISUAL STUDIO\LAB4-0\RELEASE\LAB4-0.EXE
C:\USERS\USER\DOCUMENTS\VISUAL STUDIO 2015\PROJECTS\FULLPROJECTS\VISUAL STUDIO\LAB4-0\RELEASE\LAB4-0.IPDB
C:\USERS\USER\DOCUMENTS\VISUAL STUDIO 2015\PROJECTS\FULLPROJECTS\VISUAL STUDIO\LAB4-0\RELEASE\LAB4-0.IOBJ
C:\USERS\USER\DOCUMENTS\VISUAL STUDIO 2015\PROJECTS\FULLPROJECTS\VISUAL STUDIO\LAB4-0\RELEASE\LAB4-0.PDB
^C:\USERS\VLAD\DOCUMENTS\NSU\FORGIT\FORNSU\PROGRAMMING\FULLPROJECTS\LAB4-0\LAB4-0\RELEASE\SOURCE.OBJ
C:\USERS\VLAD\DOCUMENTS\NSU\FORGIT\FORNSU\PROGRAMMING\FULLPROJECTS\LAB4-0\RELEASE\LAB4-0.EXE
C:\USERS\VLAD\DOCUMENTS\NSU\FORGIT\FORNSU\PROGRAMMING\FULLPROJECTS\LAB4-0\RELEASE\LAB4-0.IPDB
C:\USERS\VLAD\DOCUMENTS\NSU\FORGIT\FORNSU\PROGRAMMING\FULLPROJECTS\LAB4-0\RELEASE\LAB4-0.IOBJ
C:\USERS\VLAD\DOCUMENTS\NSU\FORGIT\FORNSU\PROGRAMMING\FULLPROJECTS\LAB4-0\RELEASE\LAB4-0.PDB
^C:\USERS\USER\DOCUMENTS\VISUAL STUDIO 2015\PROJECTS\PROGRAMMING\FULLPROJECTS\LAB4-0\LAB4-0\RELEASE\SOURCE.OBJ
C:\USERS\USER\DOCUMENTS\VISUAL STUDIO 2015\PROJECTS\PROGRAMMING\FULLPROJECTS\LAB4-0\RELEASE\LAB4-0.EXE
C:\USERS\USER\DOCUMENTS\VISUAL STUDIO 2015\PROJECTS\PROGRAMMING\FULLPROJECTS\LAB4-0\RELEASE\LAB4-0.IPDB
C:\USERS\USER\DOCUMENTS\VISUAL STUDIO 2015\PROJECTS\PROGRAMMING\FULLPROJECTS\LAB4-0\RELEASE\LAB4-0.IOBJ
C:\USERS\USER\DOCUMENTS\VISUAL STUDIO 2015\PROJECTS\PROGRAMMING\FULLPROJECTS\LAB4-0\RELEASE\LAB4-0.PDB
