#-----------------------------------------------------------
# Webtalk v2018.3 (64-bit)
# SW Build 2405991 on Thu Dec  6 23:38:27 MST 2018
# IP Build 2404404 on Fri Dec  7 01:43:56 MST 2018
# Start of session at: Fri Mar  8 20:25:06 2019
# Process ID: 5136
# Current directory: C:/Users/User/Documents/Visual Studio 2015/Projects/Digital circuitry/muxer16/project_2.sim/sim_1/behav/xsim
# Command line: wbtcv.exe -mode batch -source C:/Users/User/Documents/Visual Studio 2015/Projects/Digital circuitry/muxer16/project_2.sim/sim_1/behav/xsim/xsim.dir/test16_behav/webtalk/xsim_webtalk.tcl -notrace
# Log file: C:/Users/User/Documents/Visual Studio 2015/Projects/Digital circuitry/muxer16/project_2.sim/sim_1/behav/xsim/webtalk.log
# Journal file: C:/Users/User/Documents/Visual Studio 2015/Projects/Digital circuitry/muxer16/project_2.sim/sim_1/behav/xsim\webtalk.jou
#-----------------------------------------------------------
source C:/Users/User/Documents/Visual -notrace
couldn't read file "C:/Users/User/Documents/Visual": no such file or directory
INFO: [Common 17-206] Exiting Webtalk at Fri Mar  8 20:25:06 2019...
