^C:\USERS\USER\DOCUMENTS\VISUAL STUDIO 2015\PROJECTS\OTHERS\VISUAL STUDIO\LAB1-0\LAB1-0\SOURCE.C
C:\USERS\USER\DOCUMENTS\VISUAL STUDIO 2015\PROJECTS\OTHERS\VISUAL STUDIO\LAB1-0\LAB1-0\RELEASE\VC140.PDB
C:\USERS\USER\DOCUMENTS\VISUAL STUDIO 2015\PROJECTS\OTHERS\VISUAL STUDIO\LAB1-0\LAB1-0\RELEASE\SOURCE.OBJ
